<?xml version="1.0" encoding="iso-8859-1"?>
<!-- Generator: Adobe Illustrator 19.0.0, SVG Export Plug-In . SVG Version: 6.00 Build 0)  -->
<svg version="1.1" id="Capa_1" xmlns="http://www.w3.org/2000/svg" xmlns:xlink="http://www.w3.org/1999/xlink" x="0px" y="0px"
	 viewBox="0 0 512 512" style="enable-background:new 0 0 512 512;" xml:space="preserve">
<path style="fill:#C43341;" d="M228.964,59.723v-25.66c0-14.354,11.678-26.032,26.032-26.032h2.018
	c14.354,0,26.033,11.678,26.033,26.032v25.66C283.047,59.723,228.964,59.723,228.964,59.723z"/>
<polygon style="fill:#FAC870;" points="150.498,112.831 150.498,55.708 361.502,55.708 361.502,112.821 359.494,112.831 "/>
<path style="fill:#F1444A;" d="M357.486,382.524v-0.02h-53.092l3.033-3.354c26.807-29.642,42.811-79.545,42.811-133.489
	c0-53.936-16.004-103.838-42.811-133.49l-3.033-3.354h53.091l2.536-0.01l0.469,0.26c53.739,30.36,85.822,81.422,85.822,136.596
	c0,55.168-32.083,106.235-85.821,136.605l-0.46,0.26h-2.545V382.524z"/>
<path style="fill:#C43341;" d="M202.192,382.504l-0.598-0.662c-27.456-30.361-43.848-81.269-43.848-136.183
	s16.392-105.823,43.848-136.183l0.598-0.662h107.615l0.598,0.662c27.456,30.371,43.848,81.281,43.848,136.183
	c0,54.914-16.392,105.822-43.848,136.183l-0.598,0.662H202.192z"/>
<path style="fill:#F1444A;" d="M151.968,382.514l-0.459-0.26C97.77,351.896,65.687,300.832,65.687,245.66
	s32.083-106.236,85.822-136.596l0.459-0.26h2.536v0.01h53.102l-3.033,3.354c-26.807,29.642-42.811,79.545-42.811,133.49
	c0,53.945,16.004,103.848,42.811,133.489l3.033,3.354h-53.092l-2.008,0.01h-0.538V382.514z"/>
<polygon style="fill:#FAC870;" points="150.498,435.622 150.498,378.499 152.506,378.488 361.502,378.488 361.502,435.622 "/>
<path d="M379.452,305.644c1.608,0.955,3.372,1.409,5.116,1.409c3.426,0,6.765-1.756,8.642-4.915
	c10.284-17.32,15.72-36.849,15.72-56.476c0-8.188-0.93-16.376-2.763-24.336c-1.245-5.403-6.633-8.776-12.036-7.529
	c-5.403,1.244-8.774,6.633-7.53,12.036c1.494,6.484,2.251,13.155,2.251,19.829c0,16.249-4.342,31.801-12.906,46.225
	C373.115,296.653,374.685,302.813,379.452,305.644z"/>
<path d="M142.467,386.272v47.342v68.347c0,5.545,4.496,10.039,10.039,10.039s10.039-4.495,10.039-10.039v-58.308h31.674v58.308
	c0,5.545,4.496,10.039,10.039,10.039c5.544,0,10.039-4.495,10.039-10.039v-58.308h31.664v58.308c0,5.545,4.496,10.039,10.039,10.039
	c5.544,0,10.039-4.495,10.039-10.039v-58.308h31.664v58.308c0,5.545,4.496,10.039,10.039,10.039c5.544,0,10.039-4.495,10.039-10.039
	v-58.308h31.674v58.308c0,5.545,4.496,10.039,10.039,10.039c5.544,0,10.039-4.495,10.039-10.039v-68.347v-47.333
	c53.223-32.12,84.811-84.292,84.811-140.621c0-56.333-31.589-108.502-84.811-140.612V57.715c0-5.545-4.496-10.039-10.039-10.039
	h-68.417V34.063C291.077,15.281,275.796,0,257.014,0h-2.018c-18.782,0-34.063,15.281-34.063,34.063v13.613h-68.427
	c-5.544,0-10.039,4.495-10.039,10.039v47.332c-53.223,32.111-84.811,84.279-84.811,140.612S89.245,354.16,142.467,386.272z
	 M304.324,120.862c23.782,28.561,37.883,74.773,37.883,124.798c0,50.034-14.098,96.246-37.881,124.798h-96.653
	c-23.782-28.551-37.88-74.762-37.88-124.797c0-50.034,14.098-96.247,37.881-124.798L304.324,120.862L304.324,120.862z
	 M202.928,390.536c0.053,0.001,0.106,0.008,0.16,0.008c0.056,0,0.112-0.007,0.17-0.008h105.587c0.021,0,0.042,0.003,0.063,0.003
	c0.02,0,0.04-0.003,0.059-0.003h40.487v33.039H162.545v-33.039H202.928z M434.266,245.66c0,49.991-28.907,96.458-77.445,124.798
	h-27.604c20.938-32.021,33.067-77.02,33.067-124.797c0-47.771-12.129-92.77-33.069-124.798h27.591
	C405.353,149.191,434.266,195.659,434.266,245.66z M241.011,34.063c0-7.711,6.273-13.985,13.985-13.985h2.018
	c7.712,0,13.986,6.274,13.986,13.985v13.613h-29.987V34.063H241.011z M162.545,67.755h68.427h50.066h68.416v33.029h-40.236
	c-0.084-0.003-0.17,0-0.254,0H162.545V67.755z M155.193,120.862h27.588c-20.938,32.021-33.067,77.02-33.067,124.798
	s12.128,92.775,33.067,124.798h-27.588c-48.547-28.329-77.46-74.797-77.46-124.798S106.647,149.191,155.193,120.862z"/>
<path d="M384.574,203.103c12.919,0,12.941-20.078,0-20.078C371.654,183.025,371.633,203.103,384.574,203.103z"/>
<g>
</g>
<g>
</g>
<g>
</g>
<g>
</g>
<g>
</g>
<g>
</g>
<g>
</g>
<g>
</g>
<g>
</g>
<g>
</g>
<g>
</g>
<g>
</g>
<g>
</g>
<g>
</g>
<g>
</g>
</svg>
