<?xml version="1.0" encoding="iso-8859-1"?>
<!-- Generator: Adobe Illustrator 19.0.0, SVG Export Plug-In . SVG Version: 6.00 Build 0)  -->
<svg version="1.1" id="Capa_1" xmlns="http://www.w3.org/2000/svg" xmlns:xlink="http://www.w3.org/1999/xlink" x="0px" y="0px"
	 viewBox="0 0 512.001 512.001" style="enable-background:new 0 0 512.001 512.001;" xml:space="preserve">
<path style="fill:#F4900C;" d="M327.76,57.408c0,62.689-141.18,95.469-141.18,189.532c0,31.344,15.572,64.125,31.244,64.125H327.76
	h109.52c15.687,0,31.459-32.779,31.459-64.125C468.739,152.877,327.76,120.097,327.76,57.408"/>
<g>
	<path style="fill:#FFD983;" d="M499.983,480.643c0,17.323-4.147,31.359-31.359,31.359H186.481
		c-27.212,0-30.943-14.036-30.943-31.359V323.891c0-17.309,3.732-27.168,30.943-27.168h282.144c27.212,0,31.359,9.86,31.359,27.168
		L499.983,480.643L499.983,480.643z"/>
	<path style="fill:#FFD983;" d="M327.76,483.291c0,15.859-12.845,28.704-28.704,28.704H40.722
		c-15.844,0-28.704-12.845-28.704-28.704v-14.352c0-15.859,12.86-28.704,28.704-28.704h258.334
		c15.859,0,28.704,12.845,28.704,28.704V483.291z"/>
</g>
<g>
	<path style="fill:#662113;" d="M370.816,411.532c0-43.056-27.197-71.76-43.056-71.76c-15.844,0-43.056,28.704-43.056,71.76v100.463
		h28.704h28.704h28.704L370.816,411.532L370.816,411.532z"/>
	<path style="fill:#662113;" d="M256.001,445.017c0-28.704-18.14-47.835-28.704-47.835s-28.704,19.131-28.704,47.835v66.98h19.131
		h19.145h19.131V445.017z"/>
	<path style="fill:#662113;" d="M456.927,445.017c0-28.704-18.14-47.835-28.704-47.835s-28.704,19.131-28.704,47.835v66.98h19.145
		h19.117h19.145v-66.98H456.927z"/>
</g>
<path style="fill:#FFD983;" d="M126.834,483.291c0,15.859-12.86,28.704-28.704,28.704H69.426c-15.844,0-28.704-12.845-28.704-28.704
	v-373.15c0-15.844,12.86-28.704,28.704-28.704H98.13c15.844,0,28.704,12.86,28.704,28.704V483.291z"/>
<path style="fill:#F4900C;" d="M83.707,0c0,26.364-40.644,41.879-40.644,81.447c0,13.189,4.478,28.689,8.998,28.689h31.646h31.531
	c4.506,0,9.056-15.5,9.056-28.689C124.295,41.879,83.707,26.365,83.707,0"/>
<g>
	<path style="fill:#FFAC33;" d="M141.185,167.548c0,7.922-6.43,14.352-14.352,14.352H40.722c-7.922,0-14.352-6.43-14.352-14.352
		s6.43-14.352,14.352-14.352h86.111C134.756,153.198,141.185,159.626,141.185,167.548"/>
	<path style="fill:#FFAC33;" d="M141.185,110.141c0,7.922-6.43,14.352-14.352,14.352H40.722c-7.922,0-14.352-6.43-14.352-14.352
		s6.43-14.352,14.352-14.352h86.111C134.756,95.79,141.185,102.219,141.185,110.141"/>
</g>
<g>
</g>
<g>
</g>
<g>
</g>
<g>
</g>
<g>
</g>
<g>
</g>
<g>
</g>
<g>
</g>
<g>
</g>
<g>
</g>
<g>
</g>
<g>
</g>
<g>
</g>
<g>
</g>
<g>
</g>
</svg>
