<?xml version="1.0" encoding="utf-8"?>
<!-- Generator: Adobe Illustrator 22.1.0, SVG Export Plug-In . SVG Version: 6.00 Build 0)  -->
<svg version="1.1" id="Layer_1" xmlns="http://www.w3.org/2000/svg" xmlns:xlink="http://www.w3.org/1999/xlink" x="0px" y="0px"
	 viewBox="0 0 200 200" style="enable-background:new 0 0 200 200;" xml:space="preserve">
<style type="text/css">
	.st0{fill:#9ABD18;}
</style>
<title>lan</title>
<desc>Created with Sketch.</desc>
<g id="lan">
	<g id="Group" transform="translate(0.000000, 32.000000)">
		<g id="Group-2">
			<g>
				<path id="Shape_1_" class="st0" d="M123,116.3c0-1.8,1.5-3.3,3.3-3.3h69.5c1.8,0,3.3,1.5,3.3,3.3v9.9c0,5.5-4.4,9.9-9.9,9.9
					H10.5c-5.5,0-9.9-4.4-9.9-9.9v-9.9c0-1.8,1.5-3.3,3.3-3.3h69.5c1.8,0,3.3,1.5,3.3,3.3v3.3H123V116.3z M129.6,123
					c0,1.8-1.5,3.3-3.3,3.3H73.4c-1.8,0-3.3-1.5-3.3-3.3v-3.3H7.2v6.6c0,1.8,1.5,3.3,3.3,3.3h178.6c1.8,0,3.3-1.5,3.3-3.3v-6.6
					h-62.8V123z"/>
				<path class="st0" d="M189.1,137.2H10.5c-6,0-10.9-4.9-10.9-10.9v-9.9c0-2.4,1.9-4.3,4.3-4.3h69.5c2.4,0,4.3,1.9,4.3,4.3v2.3H122
					v-2.3c0-2.4,1.9-4.3,4.3-4.3h69.5c2.4,0,4.3,1.9,4.3,4.3v9.9C200.1,132.3,195.2,137.2,189.1,137.2z M3.9,114
					c-1.3,0-2.3,1-2.3,2.3v9.9c0,4.9,4,8.9,8.9,8.9h178.6c4.9,0,8.9-4,8.9-8.9v-9.9c0-1.3-1-2.3-2.3-2.3h-69.5c-1.3,0-2.3,1-2.3,2.3
					v4.3H75.7v-4.3c0-1.3-1-2.3-2.3-2.3H3.9z M189.1,130.6H10.5c-2.4,0-4.3-1.9-4.3-4.3v-7.6h64.8v4.3c0,1.3,1,2.3,2.3,2.3h52.9
					c1.3,0,2.3-1,2.3-2.3v-4.3h64.8v7.6C193.4,128.6,191.5,130.6,189.1,130.6z M8.2,120.7v5.6c0,1.3,1,2.3,2.3,2.3h178.6
					c1.3,0,2.3-1,2.3-2.3v-5.6h-60.8v2.3c0,2.4-1.9,4.3-4.3,4.3H73.4c-2.4,0-4.3-1.9-4.3-4.3v-2.3H8.2z"/>
			</g>
			<g>
				<path id="Shape_2_" class="st0" d="M70.1,119.7H17.2c-1.8,0-3.3-1.5-3.3-3.3V10.5c0-5.5,4.4-9.9,9.9-9.9h152.1
					c5.5,0,9.9,4.4,9.9,9.9v105.8c0,1.8-1.5,3.3-3.3,3.3h-52.9v3.3c0,1.8-1.5,3.3-3.3,3.3H73.4c-1.8,0-3.3-1.5-3.3-3.3V119.7z
					 M73.4,113c1.8,0,3.3,1.5,3.3,3.3v3.3H123v-3.3c0-1.8,1.5-3.3,3.3-3.3h52.9V10.5c0-1.8-1.5-3.3-3.3-3.3H23.8
					c-1.8,0-3.3,1.5-3.3,3.3V113H73.4z"/>
				<path class="st0" d="M126.3,127.3H73.4c-2.4,0-4.3-1.9-4.3-4.3v-2.3H17.2c-2.4,0-4.3-1.9-4.3-4.3V10.5c0-6,4.9-10.9,10.9-10.9
					h152.1c6,0,10.9,4.9,10.9,10.9v105.8c0,2.4-1.9,4.3-4.3,4.3h-51.9v2.3C130.6,125.3,128.7,127.3,126.3,127.3z M23.8,1.6
					c-4.9,0-8.9,4-8.9,8.9v105.8c0,1.3,1,2.3,2.3,2.3h53.9v4.3c0,1.3,1,2.3,2.3,2.3h52.9c1.3,0,2.3-1,2.3-2.3v-4.3h53.9
					c1.3,0,2.3-1,2.3-2.3V10.5c0-4.9-4-8.9-8.9-8.9H23.8z M124,120.7H75.7v-4.3c0-1.3-1-2.3-2.3-2.3H19.5V10.5
					c0-2.4,1.9-4.3,4.3-4.3h152.1c2.4,0,4.3,1.9,4.3,4.3V114h-53.9c-1.3,0-2.3,1-2.3,2.3V120.7z M77.7,118.7H122v-2.3
					c0-2.4,1.9-4.3,4.3-4.3h51.9V10.5c0-1.3-1-2.3-2.3-2.3H23.8c-1.3,0-2.3,1-2.3,2.3V112h51.9c2.4,0,4.3,1.9,4.3,4.3V118.7z"/>
			</g>
			<g>
				<path id="Shape_3_" class="st0" d="M60.1,46.8c-1.3,1.3-3.4,1.3-4.7,0s-1.3-3.4,0-4.7c24.5-24.5,64.4-24.5,88.9,0
					c1.3,1.3,1.3,3.4,0,4.7s-3.4,1.3-4.7,0C117.7,24.9,82,24.9,60.1,46.8z"/>
				<path class="st0" d="M57.7,48.8c-1.2,0-2.2-0.4-3-1.3s-1.3-1.9-1.3-3c0-1.2,0.4-2.2,1.3-3c24.9-24.9,65.4-24.9,90.3,0
					c1.7,1.7,1.7,4.4,0,6.1c-1.7,1.7-4.4,1.7-6.1,0C117.4,26,82.3,26,60.8,47.5C60,48.3,58.9,48.8,57.7,48.8z M99.8,24.8
					c-15.8,0-31.7,6-43.7,18.1c-0.4,0.4-0.7,1-0.7,1.6c0,0.6,0.2,1.2,0.7,1.6c0.9,0.9,2.4,0.9,3.3,0c22.3-22.3,58.6-22.3,80.9,0
					c0.9,0.9,2.4,0.9,3.3,0c0.9-0.9,0.9-2.4,0-3.3C131.5,30.8,115.7,24.8,99.8,24.8z"/>
			</g>
			<g>
				<path id="Shape_4_" class="st0" d="M71.8,58.5c-1.3,1.3-3.4,1.3-4.7,0c-1.3-1.3-1.3-3.4,0-4.7c18.1-18.1,47.4-18.1,65.5,0
					c1.3,1.3,1.3,3.4,0,4.7c-1.3,1.3-3.4,1.3-4.7,0C112.4,43,87.2,43,71.8,58.5z"/>
				<path class="st0" d="M69.4,60.5c-1.1,0-2.2-0.4-3-1.3c-1.7-1.7-1.7-4.4,0-6.1c18.4-18.4,48.5-18.4,66.9,0c1.7,1.7,1.7,4.4,0,6.1
					c-1.7,1.7-4.4,1.7-6.1,0c-7.3-7.3-17-11.3-27.4-11.3s-20.1,4-27.4,11.3C71.6,60.1,70.5,60.5,69.4,60.5z M99.8,41.3
					c-11.6,0-23.2,4.4-32,13.2c-0.9,0.9-0.9,2.4,0,3.3c0.9,0.9,2.4,0.9,3.3,0c7.7-7.7,17.9-11.9,28.8-11.9s21.1,4.2,28.8,11.9
					c0.9,0.9,2.4,0.9,3.3,0c0.9-0.9,0.9-2.4,0-3.3C123,45.7,111.4,41.3,99.8,41.3z"/>
			</g>
			<g>
				<path id="Shape_5_" class="st0" d="M83.5,70.2c-1.3,1.3-3.4,1.3-4.7,0c-1.3-1.3-1.3-3.4,0-4.7c11.6-11.6,30.5-11.6,42.1,0
					c1.3,1.3,1.3,3.4,0,4.7c-1.3,1.3-3.4,1.3-4.7,0C107.2,61.2,92.5,61.2,83.5,70.2z"/>
				<path class="st0" d="M81.1,72.2c-1.1,0-2.2-0.4-3-1.3c-1.7-1.7-1.7-4.4,0-6.1c12-12,31.5-12,43.5,0c1.7,1.7,1.7,4.4,0,6.1
					c-1.7,1.7-4.4,1.7-6.1,0c-4.2-4.2-9.7-6.5-15.7-6.5s-11.5,2.3-15.7,6.5l0,0C83.3,71.8,82.2,72.2,81.1,72.2z M99.8,57.8
					c-7.4,0-14.7,2.8-20.3,8.4c-0.9,0.9-0.9,2.4,0,3.3c0.9,0.9,2.4,0.9,3.3,0c4.6-4.6,10.6-7.1,17.1-7.1c6.5,0,12.5,2.5,17.1,7.1
					c0.9,0.9,2.4,0.9,3.3,0c0.9-0.9,0.9-2.4,0-3.3C114.6,60.6,107.2,57.8,99.8,57.8z"/>
			</g>
			<g>
				<path id="Shape_6_" class="st0" d="M113.1,86.6c0,7.3-5.9,13.2-13.2,13.2c-7.3,0-13.2-5.9-13.2-13.2c0-7.3,5.9-13.2,13.2-13.2
					C107.1,73.4,113.1,79.3,113.1,86.6z M106.5,86.6c0-3.7-3-6.6-6.6-6.6c-3.7,0-6.6,3-6.6,6.6c0,3.7,3,6.6,6.6,6.6
					C103.5,93.2,106.5,90.2,106.5,86.6z"/>
				<path class="st0" d="M99.8,100.8c-7.8,0-14.2-6.4-14.2-14.2S92,72.4,99.8,72.4c7.8,0,14.2,6.4,14.2,14.2S107.7,100.8,99.8,100.8
					z M99.8,74.4c-6.7,0-12.2,5.5-12.2,12.2s5.5,12.2,12.2,12.2c6.7,0,12.2-5.5,12.2-12.2S106.6,74.4,99.8,74.4z M99.8,94.2
					c-4.2,0-7.6-3.4-7.6-7.6s3.4-7.6,7.6-7.6s7.6,3.4,7.6,7.6S104,94.2,99.8,94.2z M99.8,81c-3.1,0-5.6,2.5-5.6,5.6s2.5,5.6,5.6,5.6
					c3.1,0,5.6-2.5,5.6-5.6S102.9,81,99.8,81z"/>
			</g>
		</g>
	</g>
</g>
</svg>
