<?xml version="1.0" encoding="UTF-8"?>
<svg width="200px" height="200px" viewBox="0 0 200 200" version="1.1" xmlns="http://www.w3.org/2000/svg" xmlns:xlink="http://www.w3.org/1999/xlink">
    <!-- Generator: Sketch 50.2 (55047) - http://www.bohemiancoding.com/sketch -->
    <title>locker</title>
    <desc>Created with Sketch.</desc>
    <defs></defs>
    <g id="locker" stroke="none" stroke-width="1" fill="none" fill-rule="evenodd">
        <g transform="translate(-1.000000, 0.000000)" fill="#9ABD18" fill-rule="nonzero" id="Group">
            <g transform="translate(0.784683, 0.000000)">
                <path d="M183.301946,0 L16.007533,0 C7.17984934,0 0,7.17984934 0,16.007533 L0,175.376648 C0,184.204331 7.17984934,191.384181 16.007533,191.384181 L22.9912116,191.384181 L22.9912116,193.777464 C22.9912116,196.837728 25.462963,199.309479 28.5232266,199.309479 C31.5834903,199.309479 34.0552417,196.837728 34.0552417,193.777464 L34.0552417,191.384181 L165.215003,191.384181 L165.215003,193.777464 C165.215003,196.837728 167.686755,199.309479 170.747018,199.309479 C173.807282,199.309479 176.279033,196.837728 176.279033,193.777464 L176.279033,191.384181 L183.262712,191.384181 C192.090395,191.384181 199.270245,184.204331 199.270245,175.376648 L199.270245,16.007533 C199.309479,7.17984934 192.12963,0 183.301946,0 Z M11.0640301,59.361268 L20.9118016,59.361268 L20.9118016,132.022913 L11.0640301,132.022913 L11.0640301,59.361268 Z M188.245449,175.376648 C188.245449,178.083804 186.048336,180.280917 183.34118,180.280917 L16.007533,180.280917 C13.3003766,180.280917 11.1032643,178.083804 11.1032643,175.376648 L11.1032643,143.086943 L20.9510358,143.086943 L20.9510358,164.940364 C20.9510358,168.000628 23.4227872,170.472379 26.4830508,170.472379 L172.904896,170.472379 C175.96516,170.472379 178.436911,168.000628 178.436911,164.940364 L178.436911,26.4438167 C178.436911,23.383553 175.96516,20.9118016 172.904896,20.9118016 L26.4438167,20.9118016 C23.383553,20.9118016 20.9118016,23.383553 20.9118016,26.4438167 L20.9118016,48.2972379 L11.0640301,48.2972379 L11.0640301,16.007533 C11.0640301,13.3003766 13.2611425,11.1032643 15.9682988,11.1032643 L183.301946,11.1032643 C186.009102,11.1032643 188.206215,13.3003766 188.206215,16.007533 L188.206215,175.376648 L188.245449,175.376648 Z M39.5480226,132.022913 L31.9758318,132.022913 L31.9758318,59.361268 L39.5480226,59.361268 C42.6082863,59.361268 45.0800377,56.8895166 45.0800377,53.829253 C45.0800377,50.7689893 42.6082863,48.2972379 39.5480226,48.2972379 L31.9758318,48.2972379 L31.9758318,31.9758318 L167.294413,31.9758318 L167.294413,159.369115 L31.9758318,159.369115 L31.9758318,143.047709 L39.5480226,143.047709 C42.6082863,143.047709 45.0800377,140.575957 45.0800377,137.515694 C45.0800377,134.494664 42.6082863,132.022913 39.5480226,132.022913 Z" id="Shape"></path>
                <path d="M83.4118016,119.781858 C83.254865,121.351224 83.1763967,125.863151 88.9045825,125.863151 C88.9045825,125.863151 110.444131,125.863151 110.444131,125.863151 C115.426868,125.863151 115.976146,123.3914 115.976146,120.331136 C115.976146,119.860326 114.092906,101.969554 114.092906,101.969554 C118.29096,98.0069052 120.723478,92.4748901 120.723478,86.5897677 C120.723478,74.9764595 111.268048,65.5210295 99.6155053,65.5210295 C88.0021971,65.5210295 78.5467671,74.9764595 78.5467671,86.5897677 C78.5467671,92.4748901 80.9792844,98.0461394 85.1773384,101.969554 L83.4118016,119.781858 Z M99.6547395,76.5850596 C105.186755,76.5850596 109.698682,81.0969868 109.698682,86.5897677 C109.698682,89.9639046 108.011613,93.0634024 105.225989,94.9466416 C103.53892,96.0844319 102.597301,98.0853735 102.793471,100.125549 L104.284369,114.838355 L95.0251099,114.838355 L96.5160075,100.125549 C96.7121783,98.0853735 95.7705587,96.0844319 94.0834903,94.9466416 C91.2978657,93.0634024 89.6107972,89.9639046 89.6107972,86.5897677 C89.6107972,81.0577527 94.1227244,76.5850596 99.6547395,76.5850596 Z" id="Shape"></path>
            </g>
        </g>
    </g>
</svg>