<?xml version="1.0" encoding="UTF-8"?>
<svg width="200px" height="200px" viewBox="0 0 200 200" version="1.1" xmlns="http://www.w3.org/2000/svg" xmlns:xlink="http://www.w3.org/1999/xlink">
    <!-- Generator: Sketch 50.2 (55047) - http://www.bohemiancoding.com/sketch -->
    <title>Air purifier</title>
    <desc>Created with Sketch.</desc>
    <defs></defs>
    <g id="Air-purifier" stroke="none" stroke-width="1" fill="none" fill-rule="evenodd">
        <g id="airpurifier" fill="#9ABD18" fill-rule="nonzero">
            <g id="Group">
                <path d="M106.25,200 L6.25,200 C2.79822031,200 4.22721094e-16,197.20178 0,193.75 L0,18.75 C-1.26816328e-15,8.39466094 8.39466094,1.90224492e-15 18.75,0 L93.75,0 C104.105339,6.34081642e-16 112.5,8.39466094 112.5,18.75 L112.5,193.75 C112.5,197.20178 109.70178,200 106.25,200 Z M12.5,187.5 L100,187.5 L100,18.75 C100,15.2982203 97.2017797,12.5 93.75,12.5 L18.75,12.5 C15.2982203,12.5 12.5,15.2982203 12.5,18.75 L12.5,187.5 Z" id="Shape"></path>
                <path d="M106.25,150 L6.25,150 C2.79822031,150 4.22721094e-16,147.20178 0,143.75 C-4.22721094e-16,140.29822 2.79822031,137.5 6.25,137.5 L106.25,137.5 C109.70178,137.5 112.5,140.29822 112.5,143.75 C112.5,147.20178 109.70178,150 106.25,150 Z" id="Shape"></path>
                <path d="M31.25,125 C27.7982203,125 25,122.20178 25,118.75 L25,31.25 C25,27.7982203 27.7982203,25 31.25,25 C34.7017797,25 37.5,27.7982203 37.5,31.25 L37.5,118.75 C37.5,122.20178 34.7017797,125 31.25,125 Z" id="Shape"></path>
                <path d="M56.25,125 C52.7982203,125 50,122.20178 50,118.75 L50,31.25 C50,27.7982203 52.7982203,25 56.25,25 C59.7017797,25 62.5,27.7982203 62.5,31.25 L62.5,118.75 C62.5,122.20178 59.7017797,125 56.25,125 Z" id="Shape"></path>
                <path d="M81.25,125 C77.7982203,125 75,122.20178 75,118.75 L75,31.25 C75,27.7982203 77.7982203,25 81.25,25 C84.7017797,25 87.5,27.7982203 87.5,31.25 L87.5,118.75 C87.5,122.20178 84.7017797,125 81.25,125 Z" id="Shape"></path>
                <path d="M44,175 C40.5482203,175 37.75,172.20178 37.75,168.75 C37.75,165.29822 40.5482203,162.5 44,162.5 L44.125,162.5 C47.5767797,162.5 50.375,165.29822 50.375,168.75 C50.375,172.20178 47.5767797,175 44.125,175 L44,175 Z" id="Shape"></path>
                <path d="M69,175 C65.5482203,175 62.75,172.20178 62.75,168.75 C62.75,165.29822 65.5482203,162.5 69,162.5 L69.125,162.5 C72.5767797,162.5 75.375,165.29822 75.375,168.75 C75.375,172.20178 72.5767797,175 69.125,175 L69,175 Z" id="Shape"></path>
                <path d="M168.3125,61.775 C162.046804,61.6809774 156.093025,59.0248147 151.8375,54.425 C149.787766,52.1130626 146.845985,50.789733 143.75625,50.789733 C140.666515,50.789733 137.724734,52.1130626 135.675,54.425 C133.222632,56.7935763 129.32447,56.7597023 126.913634,54.3488661 C124.502798,51.9380299 124.468924,48.039868 126.8375,45.5875 C131.232385,40.9302342 137.352725,38.2905819 143.75625,38.2905819 C150.159775,38.2905819 156.280115,40.9302342 160.675,45.5875 C162.716118,47.9142681 165.661091,49.2483605 168.75625,49.2483605 C171.851409,49.2483605 174.796382,47.9142681 176.8375,45.5875 C178.406715,43.9627713 180.730487,43.3111713 182.915671,43.8831428 C185.100855,44.4551143 186.807386,46.1616453 187.379357,48.3468292 C187.951329,50.5320132 187.299729,52.8557846 185.675,54.425 C181.044821,59.0118151 174.82864,61.643287 168.3125,61.775 Z" id="Shape"></path>
                <path d="M168.3125,86.775 C162.046804,86.6809774 156.093025,84.0248147 151.8375,79.425 C149.787766,77.1130626 146.845985,75.789733 143.75625,75.789733 C140.666515,75.789733 137.724734,77.1130626 135.675,79.425 C133.222632,81.7935763 129.32447,81.7597023 126.913634,79.3488661 C124.502798,76.9380299 124.468924,73.039868 126.8375,70.5875 C131.232385,65.9302342 137.352725,63.2905819 143.75625,63.2905819 C150.159775,63.2905819 156.280115,65.9302342 160.675,70.5875 C162.716118,72.9142681 165.661091,74.2483605 168.75625,74.2483605 C171.851409,74.2483605 174.796382,72.9142681 176.8375,70.5875 C178.406715,68.9627713 180.730487,68.3111713 182.915671,68.8831428 C185.100855,69.4551143 186.807386,71.1616453 187.379357,73.3468292 C187.951329,75.5320132 187.299729,77.8557846 185.675,79.425 C181.044821,84.0118151 174.82864,86.643287 168.3125,86.775 Z" id="Shape"></path>
                <path d="M168.3125,118.025 C162.046804,117.930977 156.093025,115.274815 151.8375,110.675 C149.787766,108.363063 146.845985,107.039733 143.75625,107.039733 C140.666515,107.039733 137.724734,108.363063 135.675,110.675 C133.222632,113.043576 129.32447,113.009702 126.913634,110.598866 C124.502798,108.18803 124.468924,104.289868 126.8375,101.8375 C131.232385,97.1802342 137.352725,94.5405819 143.75625,94.5405819 C150.159775,94.5405819 156.280115,97.1802342 160.675,101.8375 C162.718291,104.160538 165.662459,105.49192 168.75625,105.49192 C171.850041,105.49192 174.794209,104.160538 176.8375,101.8375 C178.406715,100.212771 180.730487,99.5611713 182.915671,100.133143 C185.100855,100.705114 186.807386,102.411645 187.379357,104.596829 C187.951329,106.782013 187.299729,109.105785 185.675,110.675 C181.044821,115.261815 174.82864,117.893287 168.3125,118.025 Z" id="Shape"></path>
            </g>
        </g>
    </g>
</svg>