<?xml version="1.0" encoding="UTF-8"?>
<svg width="200px" height="200px" viewBox="0 0 200 200" version="1.1" xmlns="http://www.w3.org/2000/svg" xmlns:xlink="http://www.w3.org/1999/xlink">
    <!-- Generator: Sketch 50.2 (55047) - http://www.bohemiancoding.com/sketch -->
    <title>Currency exchange</title>
    <desc>Created with Sketch.</desc>
    <defs></defs>
    <g id="Currency-exchange" stroke="none" stroke-width="1" fill="none" fill-rule="evenodd">
        <g id="noun_589830_cc" transform="translate(-1.000000, 0.000000)" fill="#9ABD18" fill-rule="nonzero">
            <g id="Group" transform="translate(0.784683, 0.000000)">
                <path d="M146.696485,34.408349 C150.188324,34.408349 153.013183,37.2332078 153.013183,40.7250471 C153.013183,43.7853107 155.484934,46.2570621 158.545198,46.2570621 C161.605461,46.2570621 164.077213,43.7853107 164.077213,40.7250471 C164.077213,33.0743879 159.094476,26.5615191 152.2285,24.2467043 L152.2285,24.0112994 C152.2285,20.9510358 149.756748,18.4792844 146.696485,18.4792844 C143.636221,18.4792844 141.16447,20.9510358 141.16447,24.0112994 L141.16447,24.2467043 C134.298493,26.5615191 129.315756,33.0743879 129.315756,40.7250471 C129.315756,50.2981795 137.123352,58.1057753 146.696485,58.1057753 C150.188324,58.1057753 153.013183,60.930634 153.013183,64.4224733 C153.013183,67.9143126 150.188324,70.7391714 146.696485,70.7391714 C143.204645,70.7391714 140.379787,67.9143126 140.379787,64.4224733 C140.379787,61.3622097 137.908035,58.8904583 134.847772,58.8904583 C131.787508,58.8904583 129.315756,61.3622097 129.315756,64.4224733 C129.315756,72.0731325 134.298493,78.5860013 141.16447,80.9008161 L141.16447,81.136221 C141.16447,84.1964846 143.636221,86.668236 146.696485,86.668236 C149.756748,86.668236 152.2285,84.1964846 152.2285,81.136221 L152.2285,80.9008161 C159.094476,78.5860013 164.077213,72.0731325 164.077213,64.4224733 C164.077213,54.8493409 156.269617,47.0417451 146.696485,47.0417451 C143.204645,47.0417451 140.379787,44.2168864 140.379787,40.7250471 C140.379787,37.2332078 143.243879,34.408349 146.696485,34.408349 Z" id="Shape"></path>
                <path d="M146.696485,0 C117.702448,0 94.1227244,23.5797238 94.1227244,52.6129944 C94.1227244,81.6070308 117.702448,105.225989 146.735719,105.225989 C175.729755,105.225989 199.348713,81.6462649 199.348713,52.6129944 C199.309479,23.5797238 175.729755,0 146.696485,0 Z M146.696485,94.1227244 C123.783741,94.1227244 105.186755,75.4865035 105.186755,52.6129944 C105.186755,29.7002511 123.822976,11.1032643 146.696485,11.1032643 C169.609228,11.1032643 188.206215,29.7394852 188.206215,52.6129944 C188.245449,75.4865035 169.609228,94.1227244 146.696485,94.1227244 Z" id="Shape"></path>
                <path d="M60.145951,114.40678 C65.2856246,114.40678 70.1506591,117.035468 73.8779033,121.7828 C75.7611425,124.176083 79.2529818,124.607659 81.6462649,122.724419 C84.039548,120.84118 84.4711237,117.349341 82.5878845,114.956058 C76.8204645,107.580038 68.6597615,103.34275 60.145951,103.34275 C47.8656623,103.34275 37.3116761,112.013497 32.3681733,124.489956 L24.6390458,124.489956 C21.5787822,124.489956 19.1070308,126.961707 19.1070308,130.021971 C19.1070308,133.082235 21.5787822,135.553986 24.6390458,135.553986 L29.6610169,135.553986 C29.5040804,137.084118 29.3863779,138.61425 29.3863779,140.183616 C29.3863779,141.752982 29.5040804,143.322348 29.6610169,144.85248 L24.6390458,144.85248 C21.5787822,144.85248 19.1070308,147.324231 19.1070308,150.384495 C19.1070308,153.444758 21.5787822,155.91651 24.6390458,155.91651 L32.3681733,155.91651 C37.3116761,168.392969 47.8656623,177.063716 60.145951,177.063716 C68.4635907,177.063716 76.2711864,173.140301 82.1170747,166.03892 C84.0787822,163.684871 83.7256748,160.193032 81.3716259,158.231325 C79.0175769,156.308851 75.5257376,156.622724 73.5640301,158.976773 C69.8760201,163.488701 65.0894539,165.960452 60.145951,165.960452 C53.829253,165.960452 48.1795355,161.997803 44.5699937,155.877276 L57.8311362,155.877276 C60.8913999,155.877276 63.3631513,153.405524 63.3631513,150.345261 C63.3631513,147.284997 60.8913999,144.813245 57.8311362,144.813245 L40.8035154,144.813245 C40.6073446,143.283114 40.450408,141.752982 40.450408,140.144382 C40.450408,138.575016 40.5681105,137.00565 40.8035154,135.514752 L57.8311362,135.514752 C60.8913999,135.514752 63.3631513,133.043001 63.3631513,129.982737 C63.3631513,126.922473 60.8913999,124.450722 57.8311362,124.450722 L44.5699937,124.450722 C48.1795355,118.369429 53.829253,114.40678 60.145951,114.40678 Z" id="Shape"></path>
                <path d="M59.086629,81.0969868 C26.522285,81.0969868 0,107.619272 0,140.22285 C0,172.787194 26.522285,199.309479 59.086629,199.309479 C91.6902072,199.309479 118.173258,172.787194 118.173258,140.22285 C118.212492,107.619272 91.6902072,81.0969868 59.086629,81.0969868 Z M59.086629,188.245449 C32.6035782,188.245449 11.0640301,166.705901 11.0640301,140.22285 C11.0640301,113.739799 32.6035782,92.2002511 59.086629,92.2002511 C85.5696798,92.2002511 107.109228,113.739799 107.109228,140.22285 C107.109228,166.705901 85.5696798,188.245449 59.086629,188.245449 Z" id="Shape"></path>
                <path d="M26.7184557,66.2664783 C29.7787194,66.2664783 32.2504708,63.7947269 32.2504708,60.7344633 C32.2504708,48.2187696 42.1767106,37.9786566 54.5747018,37.5078468 L51.6321406,40.450408 C49.4742624,42.6082863 49.4742624,46.1001255 51.6321406,48.2972379 C53.7115505,50.3766478 57.0856874,50.6512869 59.4789705,48.2972379 L71.9161959,35.8600126 C72.9362837,34.8399247 73.524796,33.4274953 73.524796,31.9365976 C73.524796,30.4849341 72.9362837,29.0725047 71.9161959,28.0131827 L59.4789705,15.5759573 C57.3210923,13.4180791 53.829253,13.4180791 51.6321406,15.5759573 C49.4742624,17.7338355 49.4742624,21.2256748 51.6321406,23.4227872 L54.6924043,26.4830508 C36.1346516,26.8753923 21.1864407,42.0590082 21.1864407,60.6952291 C21.1864407,63.7554928 23.6581921,66.2664783 26.7184557,66.2664783 Z" id="Shape"></path>
                <path d="M172.591023,133.043001 C169.53076,133.043001 167.059008,135.514803 167.059008,138.575129 C167.059008,151.091079 157.132768,161.331402 144.734777,161.802221 L147.677338,158.8596 C149.835217,156.701677 149.835217,153.209767 147.677338,151.012609 C145.597928,148.933157 142.223792,148.658512 139.830508,151.012609 L127.393283,163.450089 C126.373195,164.470198 125.784683,165.882656 125.784683,167.373585 C125.784683,168.825278 126.373195,170.237736 127.393283,171.29708 L139.830508,183.73456 C141.988387,185.892483 145.480226,185.892483 147.677338,183.73456 C149.835217,181.576638 149.835217,178.084727 147.677338,175.88757 L144.617075,172.827243 C163.174827,172.356424 178.123038,157.172497 178.123038,138.496659 C178.123038,135.554038 175.651287,133.043001 172.591023,133.043001 Z" id="Shape"></path>
            </g>
        </g>
    </g>
</svg>