<?xml version="1.0" encoding="UTF-8"?>
<svg width="200px" height="200px" viewBox="0 0 200 200" version="1.1" xmlns="http://www.w3.org/2000/svg" xmlns:xlink="http://www.w3.org/1999/xlink">
    <!-- Generator: Sketch 50.2 (55047) - http://www.bohemiancoding.com/sketch -->
    <title>Clean bed and linen</title>
    <desc>Created with Sketch.</desc>
    <defs></defs>
    <g id="Clean-bed-and-linen" stroke="none" stroke-width="1" fill="none" fill-rule="evenodd">
        <path d="M190,88.08 L190,36.6666667 C190,27.4766667 182.523333,20 173.333333,20 L26.6666667,20 C17.4766667,20 10,27.4766667 10,36.6666667 L10,88.08 C4.12333333,90.66 0,96.5166667 0,103.333333 L0,163.333333 C0,165.173333 1.49,166.666667 3.33333333,166.666667 L6.66666667,166.666667 L6.66666667,176.666667 C6.66666667,178.506667 8.15666667,180 10,180 L23.3333333,180 C25.1766667,180 26.6666667,178.506667 26.6666667,176.666667 L26.6666667,166.666667 L173.333333,166.666667 L173.333333,176.666667 C173.333333,178.506667 174.823333,180 176.666667,180 L190,180 C191.843333,180 193.333333,178.506667 193.333333,176.666667 L193.333333,166.666667 L196.666667,166.666667 C198.51,166.666667 200,165.173333 200,163.333333 L200,103.333333 C200,96.5166667 195.876667,90.66 190,88.08 Z M16.6666667,40 L146.666667,40 L146.666667,33.3333333 L17.28,33.3333333 C18.66,29.4633333 22.3266667,26.6666667 26.6666667,26.6666667 L173.333333,26.6666667 C177.673333,26.6666667 181.34,29.4633333 182.72,33.3333333 L146.666667,33.3333333 L146.666667,40 L183.333333,40 L183.333333,86.6666667 L173.333333,86.6666667 L173.333333,63.3333333 C173.333333,57.82 168.846667,53.3333333 163.333333,53.3333333 L116.666667,53.3333333 C111.153333,53.3333333 106.666667,57.82 106.666667,63.3333333 L106.666667,86.6666667 L93.3333333,86.6666667 L93.3333333,63.3333333 C93.3333333,57.82 88.8466667,53.3333333 83.3333333,53.3333333 L36.6666667,53.3333333 C31.1533333,53.3333333 26.6666667,57.82 26.6666667,63.3333333 L26.6666667,86.6666667 L16.6666667,86.6666667 L16.6666667,40 Z M166.666667,86.6666667 L113.333333,86.6666667 L113.333333,63.3333333 C113.333333,61.4966667 114.826667,60 116.666667,60 L163.333333,60 C165.173333,60 166.666667,61.4966667 166.666667,63.3333333 L166.666667,86.6666667 Z M86.6666667,86.6666667 L33.3333333,86.6666667 L33.3333333,63.3333333 C33.3333333,61.4966667 34.8266667,60 36.6666667,60 L83.3333333,60 C85.1733333,60 86.6666667,61.4966667 86.6666667,63.3333333 L86.6666667,86.6666667 Z M16.6666667,93.3333333 L30,93.3333333 L90,93.3333333 L110,93.3333333 L170,93.3333333 L183.333333,93.3333333 C188.846667,93.3333333 193.333333,97.82 193.333333,103.333333 L6.66666667,103.333333 C6.66666667,97.82 11.1533333,93.3333333 16.6666667,93.3333333 Z M20,173.333333 L13.3333333,173.333333 L13.3333333,166.666667 L20,166.666667 L20,173.333333 Z M186.666667,173.333333 L180,173.333333 L180,166.666667 L186.666667,166.666667 L186.666667,173.333333 Z M190,160 L176.666667,160 L23.3333333,160 L10,160 L6.66666667,160 L6.66666667,110 L193.333333,110 L193.333333,160 L190,160 Z" id="Shape" fill="#9ABD18" fill-rule="nonzero"></path>
    </g>
</svg>