<?xml version="1.0" encoding="UTF-8"?>
<svg width="200px" height="200px" viewBox="0 0 200 200" version="1.1" xmlns="http://www.w3.org/2000/svg" xmlns:xlink="http://www.w3.org/1999/xlink">
    <!-- Generator: Sketch 50.2 (55047) - http://www.bohemiancoding.com/sketch -->
    <title>baby sitting</title>
    <desc>Created with Sketch.</desc>
    <defs></defs>
    <g id="baby-sitting" stroke="none" stroke-width="1" fill="none" fill-rule="evenodd">
        <g id="baby" transform="translate(0.000000, 6.000000)" fill="#9ABD18" fill-rule="nonzero">
            <g id="Group" transform="translate(100.183486, 93.851172) scale(-1, 1) rotate(-180.000000) translate(-100.183486, -93.851172) translate(0.183486, 0.851172)">
                <path d="M95.9449541,185.039755 C91.8470948,184.189602 86.401631,181.592253 83.0050968,178.895005 C78.3588175,175.198777 73.961264,168.552497 72.4627931,163.007136 C72.0122324,161.457696 71.6126402,160.909276 70.6136595,160.658512 C68.2650357,160.059123 60.2711519,156.11213 55.675841,153.264016 C39.9877676,143.520897 27.09684,127.184506 21.45158,109.946993 L19.853211,105.100917 L16.4057085,104.199796 C3.16615698,100.803262 -3.72884811,86.0652396 2.11620795,73.7247706 C5.06422018,67.529052 10.6095821,63.0336391 17.304791,61.4841998 L19.853211,60.833843 L21.2028542,56.7869521 C21.9531091,54.5382263 23.6513761,50.3914373 24.950051,47.5433231 C35.8409786,24.5117227 56.72579,7.82466871 81.9062181,2.0285423 C96.1447503,-1.26809378 111.233435,-0.519877676 126.122324,4.27726809 C132.018349,6.17533129 142.460754,11.4719674 147.85525,15.3190622 C153.95107,19.6656473 163.143731,28.8583078 167.490316,34.9541284 C171.337411,40.3995923 176.634047,50.7930683 178.583078,56.7869521 L179.881753,60.833843 L182.479103,61.4332314 C192.422018,63.7818552 199.816514,72.9255861 199.816514,82.9174312 C199.767584,93.0091743 193.021407,101.702345 183.378186,104.201835 L179.930683,105.100917 L178.332314,109.946993 C171.88787,129.582059 156.648318,147.168196 137.663609,156.911315 L133.51682,159.058104 L132.9684,161.80632 C132.617737,163.355759 131.718654,165.953109 130.91947,167.602446 C124.523955,180.992864 110.185525,188.136595 95.9449541,185.039755 Z M111.4842,173.498471 C115.881753,171.449541 119.478084,167.853211 121.527013,163.455657 C122.976555,160.407747 123.125382,159.657492 123.125382,155.361876 C123.125382,149.865443 122.175331,147.317023 118.778797,143.820591 C114.53211,139.474006 107.588175,138.024465 102.841998,140.523955 C99.9449541,142.073394 98.1447503,145.370031 98.6442406,148.369011 C99.243629,151.865443 102.691131,154.864424 106.189602,154.864424 C110.687054,154.864424 112.984709,160.061162 109.936799,163.457696 C108.587156,165.007136 108.238532,165.107034 105.539246,165.007136 C99.243629,164.856269 93.598369,161.211009 90.3506626,155.264016 C88.7522936,152.316004 88.6523955,151.816514 88.6523955,147.370031 C88.6523955,143.272171 88.8521916,142.224261 90.0020387,139.775739 C93.5494393,132.181448 102.892966,127.734964 111.985729,129.284404 C120.079511,130.682977 127.423038,136.328236 131.072375,144.022426 L132.970438,147.920489 L135.268094,146.570846 C145.910296,140.426096 154.303772,132.58104 160.54842,123.139653 C172.33843,105.302752 175.637105,83.1192661 169.541284,62.0856269 C168.24261,57.4882773 164.395515,48.9459735 161.698267,44.6992864 C151.206932,27.961264 134.069317,15.9714577 114.383282,11.6738022 C108.287462,10.324159 91.5005097,10.324159 85.4046891,11.6738022 C55.4780836,18.2181448 33.4943935,41.0519878 28.0978593,71.1783894 C26.9989806,77.27421 27.0479103,88.6646279 28.1488277,95.1600408 C28.648318,97.9082569 29.8980632,102.85423 30.9969419,106.150866 C34.6442406,117.092762 40.1896024,126.136595 48.4342508,134.379205 C56.0285423,141.922528 64.1732926,147.219164 74.4138634,151.117227 C77.011213,152.116208 79.6106014,153.414883 80.2099898,153.914373 C80.8603466,154.513761 81.559633,156.262997 82.0591233,158.760449 C83.6574924,166.154944 88.5545362,171.800204 95.5494393,174.399592 C97.598369,175.098879 99.2477064,175.298675 103.143731,175.198777 C107.537207,175.09684 108.536188,174.897044 111.4842,173.498471 Z M17.204893,83.166157 C17.204893,77.2701325 17.1049949,72.4240571 17.0050968,72.4240571 C16.2059123,72.4240571 13.3577982,74.7726809 12.3078491,76.2711519 C8.71151886,81.5188583 9.96126402,88.7115189 15.1070336,92.4587156 C16.2059123,93.2579001 17.1049949,93.9082569 17.1559633,93.9082569 C17.2069317,93.9082569 17.204893,89.0621814 17.204893,83.166157 Z M187.176351,89.961264 C190.073394,86.2140673 190.273191,81.2171254 187.675841,76.7706422 C186.576962,74.9724771 183.728848,72.4240571 182.778797,72.4240571 C182.678899,72.4240571 182.579001,77.2212029 182.579001,83.1151886 L182.579001,93.8572885 L184.077472,92.9072375 C184.927625,92.4097859 186.277268,91.1111111 187.176351,89.961264 Z" id="Shape"></path>
                <path d="M61.2212029,106.599388 C54.9765545,105.100917 47.930683,99.8552497 45.8817533,95.1090724 C44.9826707,93.1600408 44.9826707,92.7604485 45.6309888,91.2619776 C46.5300714,89.0642202 48.1794088,87.9143731 50.4281346,87.9143731 C52.4260958,87.9143731 53.5249745,88.7135576 55.8735984,91.7614679 C58.2711519,94.9582059 62.617737,96.9072375 67.1151886,96.9072375 C71.961264,96.9072375 74.7604485,95.5086646 78.7074414,91.2110092 C81.5555556,88.1630989 81.9041794,87.9143731 83.853211,87.9143731 C85.5514781,87.9143731 86.3017329,88.2140673 87.45158,89.3639144 C90.3486239,92.2629969 89.1498471,95.7594292 83.5535168,101.005097 C77.7084608,106.399592 69.266055,108.546381 61.2212029,106.599388 Z" id="Shape"></path>
                <path d="M126.772681,106.599388 C119.027523,104.750255 110.884811,97.6554536 110.884811,92.8093782 C110.884811,90.0122324 112.982671,87.9123344 115.881753,87.9123344 C118.030581,87.9123344 118.030581,87.9123344 122.326198,92.6585117 C127.32314,98.2038736 137.264016,98.4036697 142.611621,93.058104 C143.461774,92.2079511 144.860347,90.7604485 145.759429,89.7104995 C147.109072,88.2120285 147.708461,87.9123344 149.406728,87.9123344 C153.653415,87.9123344 155.702345,92.4097859 153.304791,96.3567788 C152.754332,97.2558614 151.206932,99.1049949 149.808359,100.40367 C143.759429,106.199796 134.915392,108.59735 126.772681,106.599388 Z" id="Shape"></path>
                <path d="M93.7961264,68.4770642 C92.2466871,67.9775739 90.1997961,67.0784913 89.2008155,66.479103 C86.803262,64.980632 83.204893,60.9337411 81.9062181,58.185525 L80.8073394,55.9367992 L77.4108053,56.2364934 C74.0632008,56.587156 73.9143731,56.5361876 72.4648318,55.0377166 C70.7665647,53.3883792 70.4668705,51.4393476 71.5147808,49.1926606 C72.2140673,47.5942915 73.7635066,46.7441386 77.559633,45.9449541 C79.1090724,45.5942915 80.4077472,44.9949032 80.4077472,44.695209 C80.4077472,44.3445464 81.2069317,42.4974516 82.1569827,40.5973496 C84.3058104,36.2996942 87.3027523,33.4026504 91.8002039,31.304791 C94.8481142,29.8552497 95.598369,29.706422 99.8939857,29.706422 C104.191641,29.706422 104.939857,29.8552497 107.987768,31.304791 C112.485219,33.4026504 115.482161,36.3017329 117.630989,40.5973496 C118.58104,42.4954128 119.380224,44.3445464 119.380224,44.695209 C119.380224,44.9949032 120.678899,45.5942915 122.277268,45.9449541 C126.024465,46.7441386 127.573904,47.5942915 128.273191,49.1926606 C129.32314,51.4413863 129.023445,53.3883792 127.32314,55.0377166 C125.873598,56.5361876 125.724771,56.587156 122.377166,56.2364934 L118.980632,55.9367992 L117.879715,58.185525 C116.481142,61.1335372 112.882773,65.0295617 110.234455,66.579001 C105.388379,69.4271152 99.0927625,70.17737 93.7961264,68.4770642 Z M102.540265,58.8848114 C105.439348,58.0856269 108.236493,55.2884811 109.135576,52.3404689 C110.234455,48.5932722 109.38634,45.4454638 106.638124,42.648318 C104.240571,40.2507645 102.340469,39.7003058 98.3445464,40.0509684 C93.7492355,40.4994903 90.1508665,44.7482161 90.2018349,49.6941896 C90.3017329,53.7920489 92.7991845,57.3374108 96.6972477,58.687054 C99.0927625,59.5351682 100.091743,59.5840979 102.540265,58.8848114 Z" id="Shape"></path>
            </g>
        </g>
    </g>
</svg>