<?xml version="1.0" encoding="UTF-8"?>
<svg width="200px" height="200px" viewBox="0 0 200 200" version="1.1" xmlns="http://www.w3.org/2000/svg" xmlns:xlink="http://www.w3.org/1999/xlink">
    <!-- Generator: Sketch 50.2 (55047) - http://www.bohemiancoding.com/sketch -->
    <title>grm copy 2</title>
    <desc>Created with Sketch.</desc>
    <defs></defs>
    <g id="grm-copy-2" stroke="none" stroke-width="1" fill="none" fill-rule="evenodd">
        <g id="fridge" transform="translate(34.000000, 0.000000)" fill="#9ABD18" fill-rule="nonzero">
            <g id="Group" transform="translate(0.935734, 0.000000)">
                <path d="M124.372254,0 L5.88512241,0 C2.82485876,0 0.353107345,2.47175141 0.353107345,5.53201507 L0.353107345,184.989014 C0.353107345,188.049278 2.82485876,190.52103 5.88512241,190.52103 L14.6343377,190.52103 L14.6343377,193.73823 C14.6343377,196.798493 17.1060891,199.270245 20.1663528,199.270245 C23.2266164,199.270245 25.6983679,196.798493 25.6983679,193.73823 L25.6983679,190.52103 L104.519774,190.52103 L104.519774,193.73823 C104.519774,196.798493 106.991525,199.270245 110.051789,199.270245 C113.112053,199.270245 115.583804,196.798493 115.583804,193.73823 L115.583804,190.52103 L124.372254,190.52103 C127.432517,190.52103 129.904269,188.049278 129.904269,184.989014 L129.904269,5.53201507 C129.904269,2.47175141 127.432517,0 124.372254,0 Z M118.840239,179.456999 L11.4171375,179.456999 L11.4171375,77.8013183 L118.840239,77.8013183 L118.840239,179.456999 Z M118.840239,66.7372881 L11.4171375,66.7372881 L11.4171375,11.0640301 L118.840239,11.0640301 L118.840239,66.7372881 Z" id="Shape"></path>
                <path d="M27.6600753,50.3374137 C30.720339,50.3374137 33.1920904,47.8656623 33.1920904,44.8053986 L33.1920904,32.9959196 C33.1920904,29.935656 30.720339,27.4639046 27.6600753,27.4639046 C24.5998117,27.4639046 22.1280603,29.935656 22.1280603,32.9959196 L22.1280603,44.8053986 C22.1280603,47.8656623 24.5998117,50.3374137 27.6600753,50.3374137 Z" id="Shape"></path>
                <path d="M27.6600753,140.065913 C30.720339,140.065913 33.1920904,137.594162 33.1920904,134.533898 L33.1920904,122.724419 C33.1920904,119.664156 30.720339,117.192404 27.6600753,117.192404 C24.5998117,117.192404 22.1280603,119.664156 22.1280603,122.724419 L22.1280603,134.533898 C22.1280603,137.594162 24.5998117,140.065913 27.6600753,140.065913 Z" id="Shape"></path>
            </g>
        </g>
    </g>
</svg>