<?xml version="1.0" encoding="UTF-8"?>
<svg width="200px" height="200px" viewBox="0 0 200 200" version="1.1" xmlns="http://www.w3.org/2000/svg" xmlns:xlink="http://www.w3.org/1999/xlink">
    <!-- Generator: Sketch 50.2 (55047) - http://www.bohemiancoding.com/sketch -->
    <title>Public transport</title>
    <desc>Created with Sketch.</desc>
    <defs></defs>
    <g id="Public-transport" stroke="none" stroke-width="1" fill="none" fill-rule="evenodd">
        <g id="public" transform="translate(14.000000, 0.000000)" fill="#9ABD18" fill-rule="nonzero">
            <g id="Group">
                <path d="M7.42857143,200 C4.53558742,200.005176 1.92516459,198.264816 0.817367005,195.592333 C-0.290430583,192.919849 0.323187986,189.84306 2.37142857,187.8 L30.9428571,159.228571 C33.7455635,156.521627 38.2006056,156.56034 40.955847,159.315582 C43.7110884,162.070823 43.7498015,166.525865 41.0428571,169.328571 L12.4714286,197.9 C11.1351146,199.24051 9.32136937,199.995809 7.42857143,200 Z" id="Shape"></path>
                <path d="M164.571429,200 C162.675731,200.003386 160.856439,199.253056 159.514286,197.914286 L130.942857,169.342857 C128.235913,166.540151 128.274626,162.085109 131.029867,159.329867 C133.785109,156.574626 138.240151,156.535913 141.042857,159.242857 L169.614286,187.814286 C171.650478,189.856844 172.258512,192.923539 171.155673,195.588472 C170.052834,198.253406 167.455537,199.993628 164.571429,200 Z" id="Shape"></path>
                <path d="M136,171.428571 L36,171.428571 C16.2755446,171.428571 0.285714286,155.438741 0.285714286,135.714286 C0.286586899,134.119125 0.386780744,132.525565 0.585714286,130.942857 L14.8714286,24.7428571 C16.7854497,10.5878199 28.8590163,0.0211612506 43.1428571,-4.4408921e-16 L128.857143,-4.4408921e-16 C143.150323,0.031830941 155.232434,10.5960584 157.171429,24.7571429 L171.457143,130.942857 C172.83525,141.165441 169.726198,151.484624 162.930197,159.244442 C156.134196,167.004259 146.315041,171.446776 136,171.428571 Z M43.1428571,14.2857143 C36.0029632,14.2917521 29.9638835,19.5683217 29,26.6428571 L14.7142857,132.842857 C14.6035359,133.795814 14.5558131,134.755042 14.5714286,135.714286 C14.5714286,141.397496 16.8290752,146.847937 20.8477118,150.866574 C24.8663485,154.885211 30.3167895,157.142857 36,157.142857 L136,157.142857 C147.834673,157.142857 157.428571,147.548959 157.428571,135.714286 C157.430915,134.758327 157.364074,133.803452 157.228571,132.857143 L142.942857,26.6714286 C141.994963,19.6070109 135.984777,14.3221925 128.857143,14.2857143 L43.1428571,14.2857143 Z" id="Shape"></path>
                <path d="M50.5714286,142.857143 C46.6265375,142.857143 43.4285714,139.659177 43.4285714,135.714286 C43.4285714,131.769395 46.6265375,128.571429 50.5714286,128.571429 L50.7142857,128.571429 C54.6591768,128.571429 57.8571429,131.769395 57.8571429,135.714286 C57.8571429,139.659177 54.6591768,142.857143 50.7142857,142.857143 L50.5714286,142.857143 Z" id="Shape"></path>
                <path d="M122,142.857143 C118.055109,142.857143 114.857143,139.659177 114.857143,135.714286 C114.857143,131.769395 118.055109,128.571429 122,128.571429 L122.142857,128.571429 C126.087748,128.571429 129.285714,131.769395 129.285714,135.714286 C129.285714,139.659177 126.087748,142.857143 122.142857,142.857143 L122,142.857143 Z" id="Shape"></path>
                <path d="M161,114.285714 L11,114.285714 C7.05510893,114.285714 3.85714286,111.087748 3.85714286,107.142857 C3.85714286,103.197966 7.05510893,100 11,100 L161,100 C164.944891,100 168.142857,103.197966 168.142857,107.142857 C168.142857,111.087748 164.944891,114.285714 161,114.285714 Z" id="Shape"></path>
                <path d="M151.428571,42.8571429 L20.5714286,42.8571429 C16.6265375,42.8571429 13.4285714,39.6591768 13.4285714,35.7142857 C13.4285714,31.7693946 16.6265375,28.5714286 20.5714286,28.5714286 L151.428571,28.5714286 C155.373462,28.5714286 158.571429,31.7693946 158.571429,35.7142857 C158.571429,39.6591768 155.373462,42.8571429 151.428571,42.8571429 Z" id="Shape"></path>
            </g>
        </g>
    </g>
</svg>